{
  "extends": [
    "tslint:latest",
    "tslint-config-airbnb"
  ],
  "rulesDirectory": [
    "node_modules/tslint-lines-between-class-members"
  ],
  "rules": {
    "align": false,
    "prefer-conditional-expression": false,
    "prefer-const": true,
    "ter-arrow-parens": false,
    "quotemark": [
      true,
      "single"
    ],
    "no-var-requires": false,
    "no-implicit-dependencies": false,
    "no-submodule-imports": false,
    "object-literal-sort-keys": false,
    "jsx-alignment": false,
    "variable-name": false,
    "import-name": false,
    "no-console": false,
    "object-shorthand-properties-first": false,
    "ordered-imports": false,
    "no-empty-interface": false,
    "no-empty": false,
    "max-classes-per-file": false,
    "max-line-length": [
      true,
      500
    ],
    "array-type": [
      true,
      "array"
    ],
    "eofline": true,
    "indent": [
      true,
      "spaces"
    ],
    "lines-between-class-members": true,
    "no-any": true
  }
}